{
    "device_id": "1000",
    "destination": "service_thingsboard",
    "name": "bag_counter",
    "device": "/home/subrato/Downloads/bag_count.mp4",
    "resource": "bag_count_inference_graph.pb,bag_count_labelmap.pbtxt",
    "roi_x1": "10",
    "roi_y1": "10",
    "roi_x2": "10",
    "roi_y2": "10",
    "threshold_score": "0.6",
    "callback_frequency": "10"
}
